2 Pre procesamiento | Minería de datos
…
##          Var1  Porcentaje Freq
## 1        Acre 0.002894272    1
## 2   Andalucia 0.063673989   22
## 3 Antofagasta 0.196810512   68
## 4       Arica 0.040519811   14
## 5     Atacama 0.017365633    6
## 6     Beijing 0.002894272    1

library(dplyr)#Gramática de datos

bdpv %>% group_by(Departamento) %>% count() 

## # A tibble: 84 × 2
## # Groups:   Departamento [84]
##    Departamento     n
##    <chr>        <int>
##  1 Acre             1
##  2 Andalucia       22
##  3 Antofagasta     68
##  4 Arica           14
##  5 Atacama          6
##  6 Beijing          1
##  7 Beni          1298
##  8 Berlín           2
##  9 Bruselas         1
## 10 Buenos Aires   532
## # … with 74 more rows
## # ℹ Use `print(n = ...)` to see more rows
…
tt1

## # A tibble: 84 × 3
##    Departamento  Freq Porcentaje
##    <chr>        <int>      <dbl>
##  1 Acre             1    0.00289
##  2 Andalucia       22    0.0637 
##  3 Antofagasta     68    0.197  
##  4 Arica           14    0.0405 
##  5 Atacama          6    0.0174 
##  6 Beijing          1    0.00289
##  7 Beni          1298    3.76   
##  8 Berlín           2    0.00579
##  9 Bruselas         1    0.00289
## 10 Buenos Aires   532    1.54   
## # … with 74 more rows
## # ℹ Use `print(n = ...)` to see more rows
…
